info face=open_sans size=24 bold=0 italic=0 charset= unicode= stretchH=100 smooth=1 aa=1 padding=2,2,2,2 spacing=0,0 outline=0
common lineHeight=33 base=18 scaleW=133 scaleH=441 pages=1 packed=0
page id=0 file="open_sans.png"
chars count=95
char id=32 x=2 y=2 width=0 height=0 xoffset=0 yoffset=18 xadvance=6 page=0 chnl=15
char id=33 x=2 y=4 width=3 height=18 xoffset=2 yoffset=1 xadvance=6 page=0 chnl=15
char id=34 x=2 y=24 width=7 height=7 xoffset=2 yoffset=1 xadvance=10 page=0 chnl=15
char id=35 x=7 y=2 width=15 height=17 xoffset=1 yoffset=1 xadvance=16 page=0 chnl=15
char id=36 x=2 y=33 width=11 height=20 xoffset=2 yoffset=0 xadvance=14 page=0 chnl=15
char id=37 x=2 y=55 width=18 height=18 xoffset=1 yoffset=1 xadvance=20 page=0 chnl=15
char id=38 x=15 y=21 width=16 height=18 xoffset=1 yoffset=1 xadvance=18 page=0 chnl=15
char id=39 x=15 y=41 width=3 height=7 xoffset=2 yoffset=1 xadvance=5 page=0 chnl=15
char id=40 x=2 y=75 width=6 height=21 xoffset=1 yoffset=1 xadvance=7 page=0 chnl=15
char id=41 x=2 y=98 width=6 height=21 xoffset=1 yoffset=1 xadvance=7 page=0 chnl=15
char id=42 x=20 y=41 width=12 height=11 xoffset=1 yoffset=0 xadvance=13 page=0 chnl=15
char id=43 x=24 y=2 width=12 height=12 xoffset=1 yoffset=4 xadvance=14 page=0 chnl=15
char id=44 x=33 y=16 width=4 height=6 xoffset=1 yoffset=16 xadvance=6 page=0 chnl=15
char id=45 x=24 y=16 width=6 height=2 xoffset=1 yoffset=11 xadvance=8 page=0 chnl=15
char id=46 x=38 y=2 width=3 height=4 xoffset=2 yoffset=16 xadvance=6 page=0 chnl=15
char id=47 x=2 y=121 width=9 height=17 xoffset=0 yoffset=1 xadvance=9 page=0 chnl=15
char id=48 x=10 y=75 width=12 height=18 xoffset=1 yoffset=1 xadvance=14 page=0 chnl=15
char id=49 x=22 y=54 width=7 height=17 xoffset=2 yoffset=1 xadvance=14 page=0 chnl=15
char id=50 x=10 y=95 width=12 height=18 xoffset=1 yoffset=1 xadvance=14 page=0 chnl=15
char id=51 x=2 y=140 width=12 height=18 xoffset=1 yoffset=1 xadvance=14 page=0 chnl=15
char id=52 x=13 y=115 width=13 height=18 xoffset=1 yoffset=1 xadvance=14 page=0 chnl=15
char id=53 x=24 y=73 width=11 height=18 xoffset=2 yoffset=1 xadvance=14 page=0 chnl=15
char id=54 x=24 y=93 width=12 height=18 xoffset=1 yoffset=1 xadvance=14 page=0 chnl=15
char id=55 x=31 y=54 width=12 height=17 xoffset=1 yoffset=1 xadvance=14 page=0 chnl=15
char id=56 x=37 y=73 width=12 height=18 xoffset=1 yoffset=1 xadvance=14 page=0 chnl=15
char id=57 x=34 y=24 width=12 height=18 xoffset=1 yoffset=1 xadvance=14 page=0 chnl=15
char id=58 x=39 y=8 width=3 height=14 xoffset=2 yoffset=5 xadvance=6 page=0 chnl=15
char id=59 x=44 y=2 width=4 height=17 xoffset=1 yoffset=5 xadvance=6 page=0 chnl=15
char id=60 x=45 y=44 width=12 height=12 xoffset=1 yoffset=4 xadvance=14 page=0 chnl=15
char id=61 x=45 y=58 width=11 height=7 xoffset=1 yoffset=7 xadvance=14 page=0 chnl=15
char id=62 x=48 y=21 width=12 height=12 xoffset=1 yoffset=4 xadvance=14 page=0 chnl=15
char id=63 x=2 y=160 width=10 height=18 xoffset=0 yoffset=1 xadvance=10 page=0 chnl=15
char id=64 x=2 y=180 width=19 height=20 xoffset=1 yoffset=1 xadvance=22 page=0 chnl=15
char id=65 x=14 y=160 width=16 height=18 xoffset=0 yoffset=1 xadvance=15 page=0 chnl=15
char id=66 x=50 y=2 width=12 height=17 xoffset=2 yoffset=1 xadvance=16 page=0 chnl=15
char id=67 x=16 y=135 width=13 height=18 xoffset=1 yoffset=1 xadvance=15 page=0 chnl=15
char id=68 x=28 y=113 width=14 height=17 xoffset=2 yoffset=1 xadvance=17 page=0 chnl=15
char id=69 x=38 y=93 width=10 height=17 xoffset=2 yoffset=1 xadvance=13 page=0 chnl=15
char id=70 x=31 y=132 width=10 height=17 xoffset=2 yoffset=1 xadvance=12 page=0 chnl=15
char id=71 x=2 y=202 width=15 height=18 xoffset=1 yoffset=1 xadvance=17 page=0 chnl=15
char id=72 x=2 y=222 width=13 height=17 xoffset=2 yoffset=1 xadvance=18 page=0 chnl=15
char id=73 x=2 y=241 width=2 height=17 xoffset=2 yoffset=1 xadvance=7 page=0 chnl=15
char id=74 x=2 y=260 width=6 height=22 xoffset=-2 yoffset=1 xadvance=6 page=0 chnl=15
char id=75 x=6 y=241 width=13 height=17 xoffset=2 yoffset=1 xadvance=15 page=0 chnl=15
char id=76 x=17 y=222 width=10 height=17 xoffset=2 yoffset=1 xadvance=12 page=0 chnl=15
char id=77 x=19 y=202 width=17 height=17 xoffset=2 yoffset=1 xadvance=22 page=0 chnl=15
char id=78 x=23 y=180 width=14 height=17 xoffset=2 yoffset=1 xadvance=18 page=0 chnl=15
char id=79 x=32 y=151 width=16 height=18 xoffset=1 yoffset=1 xadvance=19 page=0 chnl=15
char id=80 x=43 y=132 width=11 height=17 xoffset=2 yoffset=1 xadvance=14 page=0 chnl=15
char id=81 x=50 y=93 width=16 height=22 xoffset=1 yoffset=1 xadvance=19 page=0 chnl=15
char id=82 x=51 y=67 width=12 height=17 xoffset=2 yoffset=1 xadvance=15 page=0 chnl=15
char id=83 x=59 y=35 width=11 height=18 xoffset=1 yoffset=1 xadvance=13 page=0 chnl=15
char id=84 x=64 y=2 width=13 height=17 xoffset=0 yoffset=1 xadvance=13 page=0 chnl=15
char id=85 x=65 y=55 width=13 height=18 xoffset=2 yoffset=1 xadvance=17 page=0 chnl=15
char id=86 x=72 y=21 width=15 height=17 xoffset=0 yoffset=1 xadvance=14 page=0 chnl=15
char id=87 x=79 y=2 width=22 height=17 xoffset=0 yoffset=1 xadvance=22 page=0 chnl=15
char id=88 x=2 y=284 width=14 height=17 xoffset=0 yoffset=1 xadvance=14 page=0 chnl=15
char id=89 x=10 y=260 width=14 height=17 xoffset=0 yoffset=1 xadvance=13 page=0 chnl=15
char id=90 x=21 y=241 width=12 height=17 xoffset=1 yoffset=1 xadvance=14 page=0 chnl=15
char id=91 x=2 y=303 width=6 height=21 xoffset=2 yoffset=1 xadvance=8 page=0 chnl=15
char id=92 x=29 y=221 width=9 height=17 xoffset=0 yoffset=1 xadvance=9 page=0 chnl=15
char id=93 x=39 y=171 width=6 height=21 xoffset=1 yoffset=1 xadvance=8 page=0 chnl=15
char id=94 x=72 y=40 width=12 height=11 xoffset=1 yoffset=1 xadvance=13 page=0 chnl=15
char id=95 x=16 y=155 width=11 height=2 xoffset=0 yoffset=21 xadvance=11 page=0 chnl=15
char id=96 x=58 y=58 width=5 height=4 xoffset=5 yoffset=0 xadvance=14 page=0 chnl=15
char id=97 x=65 y=75 width=11 height=14 xoffset=1 yoffset=5 xadvance=13 page=0 chnl=15
char id=98 x=38 y=199 width=12 height=19 xoffset=2 yoffset=0 xadvance=15 page=0 chnl=15
char id=99 x=47 y=171 width=10 height=14 xoffset=1 yoffset=5 xadvance=11 page=0 chnl=15
char id=100 x=56 y=117 width=12 height=19 xoffset=1 yoffset=0 xadvance=15 page=0 chnl=15
char id=101 x=50 y=151 width=11 height=14 xoffset=1 yoffset=5 xadvance=13 page=0 chnl=15
char id=102 x=68 y=91 width=9 height=19 xoffset=0 yoffset=0 xadvance=8 page=0 chnl=15
char id=103 x=2 y=326 width=12 height=19 xoffset=0 yoffset=5 xadvance=13 page=0 chnl=15
char id=104 x=10 y=303 width=11 height=19 xoffset=2 yoffset=0 xadvance=15 page=0 chnl=15
char id=105 x=44 y=112 width=3 height=18 xoffset=2 yoffset=1 xadvance=6 page=0 chnl=15
char id=106 x=2 y=347 width=6 height=24 xoffset=-1 yoffset=1 xadvance=6 page=0 chnl=15
char id=107 x=18 y=279 width=10 height=19 xoffset=2 yoffset=0 xadvance=13 page=0 chnl=15
char id=108 x=2 y=373 width=2 height=19 xoffset=2 yoffset=0 xadvance=6 page=0 chnl=15
char id=109 x=78 y=75 width=19 height=13 xoffset=2 yoffset=5 xadvance=22 page=0 chnl=15
char id=110 x=26 y=260 width=11 height=13 xoffset=2 yoffset=5 xadvance=15 page=0 chnl=15
char id=111 x=35 y=240 width=12 height=14 xoffset=1 yoffset=5 xadvance=14 page=0 chnl=15
char id=112 x=80 y=53 width=12 height=19 xoffset=2 yoffset=5 xadvance=15 page=0 chnl=15
char id=113 x=89 y=21 width=12 height=19 xoffset=1 yoffset=5 xadvance=15 page=0 chnl=15
char id=114 x=40 y=220 width=8 height=13 xoffset=2 yoffset=5 xadvance=10 page=0 chnl=15
char id=115 x=94 y=42 width=9 height=14 xoffset=1 yoffset=5 xadvance=11 page=0 chnl=15
char id=116 x=103 y=2 width=8 height=16 xoffset=0 yoffset=3 xadvance=8 page=0 chnl=15
char id=117 x=94 y=58 width=11 height=13 xoffset=2 yoffset=6 xadvance=15 page=0 chnl=15
char id=118 x=103 y=20 width=12 height=13 xoffset=0 yoffset=6 xadvance=12 page=0 chnl=15
char id=119 x=113 y=2 width=18 height=13 xoffset=0 yoffset=6 xadvance=19 page=0 chnl=15
char id=120 x=105 y=35 width=12 height=13 xoffset=0 yoffset=6 xadvance=13 page=0 chnl=15
char id=121 x=2 y=394 width=12 height=19 xoffset=0 yoffset=6 xadvance=12 page=0 chnl=15
char id=122 x=117 y=17 width=10 height=13 xoffset=1 yoffset=6 xadvance=11 page=0 chnl=15
char id=123 x=10 y=347 width=8 height=21 xoffset=1 yoffset=1 xadvance=9 page=0 chnl=15
char id=124 x=2 y=415 width=2 height=24 xoffset=6 yoffset=0 xadvance=13 page=0 chnl=15
char id=125 x=16 y=324 width=8 height=21 xoffset=1 yoffset=1 xadvance=9 page=0 chnl=15
char id=126 x=51 y=86 width=12 height=3 xoffset=1 yoffset=8 xadvance=14 page=0 chnl=15
char id=32 x=0 y=0 width=0 height=0 xoffset=1 yoffset=8 xadvance=6 page=0 chnl=15
kernings count=313
kerning first=34 second=65 amount=-2
kerning first=34 second=84 amount=0
kerning first=34 second=86 amount=0
kerning first=34 second=87 amount=0
kerning first=34 second=89 amount=0
kerning first=34 second=97 amount=-1
kerning first=34 second=99 amount=-1
kerning first=34 second=100 amount=-1
kerning first=34 second=101 amount=-1
kerning first=34 second=103 amount=-1
kerning first=34 second=109 amount=-1
kerning first=34 second=110 amount=-1
kerning first=34 second=111 amount=-1
kerning first=34 second=112 amount=-1
kerning first=34 second=113 amount=-1
kerning first=34 second=114 amount=-1
kerning first=34 second=115 amount=-1
kerning first=34 second=117 amount=-1
kerning first=39 second=65 amount=-2
kerning first=39 second=84 amount=0
kerning first=39 second=86 amount=0
kerning first=39 second=87 amount=0
kerning first=39 second=89 amount=0
kerning first=39 second=97 amount=-1
kerning first=39 second=99 amount=-1
kerning first=39 second=100 amount=-1
kerning first=39 second=101 amount=-1
kerning first=39 second=103 amount=-1
kerning first=39 second=109 amount=-1
kerning first=39 second=110 amount=-1
kerning first=39 second=111 amount=-1
kerning first=39 second=112 amount=-1
kerning first=39 second=113 amount=-1
kerning first=39 second=114 amount=-1
kerning first=39 second=115 amount=-1
kerning first=39 second=117 amount=-1
kerning first=40 second=74 amount=2
kerning first=44 second=67 amount=-1
kerning first=44 second=71 amount=-1
kerning first=44 second=79 amount=-1
kerning first=44 second=81 amount=-1
kerning first=44 second=84 amount=-2
kerning first=44 second=85 amount=0
kerning first=44 second=86 amount=-1
kerning first=44 second=87 amount=-1
kerning first=44 second=89 amount=-1
kerning first=45 second=84 amount=-1
kerning first=46 second=67 amount=-1
kerning first=46 second=71 amount=-1
kerning first=46 second=79 amount=-1
kerning first=46 second=81 amount=-1
kerning first=46 second=84 amount=-2
kerning first=46 second=85 amount=0
kerning first=46 second=86 amount=-1
kerning first=46 second=87 amount=-1
kerning first=46 second=89 amount=-1
kerning first=65 second=34 amount=-2
kerning first=65 second=39 amount=-2
kerning first=65 second=67 amount=0
kerning first=65 second=71 amount=0
kerning first=65 second=74 amount=3
kerning first=65 second=79 amount=0
kerning first=65 second=81 amount=0
kerning first=65 second=84 amount=-2
kerning first=65 second=86 amount=-1
kerning first=65 second=87 amount=-1
kerning first=65 second=89 amount=-1
kerning first=66 second=44 amount=-1
kerning first=66 second=46 amount=-1
kerning first=66 second=65 amount=0
kerning first=66 second=84 amount=-1
kerning first=66 second=86 amount=0
kerning first=66 second=87 amount=0
kerning first=66 second=88 amount=0
kerning first=66 second=89 amount=0
kerning first=66 second=90 amount=0
kerning first=67 second=67 amount=0
kerning first=67 second=71 amount=0
kerning first=67 second=79 amount=0
kerning first=67 second=81 amount=0
kerning first=68 second=44 amount=-1
kerning first=68 second=46 amount=-1
kerning first=68 second=65 amount=0
kerning first=68 second=84 amount=-1
kerning first=68 second=86 amount=0
kerning first=68 second=87 amount=0
kerning first=68 second=88 amount=0
kerning first=68 second=89 amount=0
kerning first=68 second=90 amount=0
kerning first=69 second=74 amount=1
kerning first=70 second=44 amount=-1
kerning first=70 second=46 amount=-1
kerning first=70 second=63 amount=0
kerning first=70 second=65 amount=0
kerning first=75 second=67 amount=0
kerning first=75 second=71 amount=0
kerning first=75 second=79 amount=0
kerning first=75 second=81 amount=0
kerning first=76 second=34 amount=-2
kerning first=76 second=39 amount=-2
kerning first=76 second=67 amount=0
kerning first=76 second=71 amount=0
kerning first=76 second=79 amount=0
kerning first=76 second=81 amount=0
kerning first=76 second=84 amount=0
kerning first=76 second=85 amount=0
kerning first=76 second=86 amount=0
kerning first=76 second=87 amount=0
kerning first=76 second=89 amount=-1
kerning first=79 second=44 amount=-1
kerning first=79 second=46 amount=-1
kerning first=79 second=65 amount=0
kerning first=79 second=84 amount=-1
kerning first=79 second=86 amount=0
kerning first=79 second=87 amount=0
kerning first=79 second=88 amount=0
kerning first=79 second=89 amount=0
kerning first=79 second=90 amount=0
kerning first=80 second=44 amount=-3
kerning first=80 second=46 amount=-3
kerning first=80 second=65 amount=-1
kerning first=80 second=88 amount=0
kerning first=80 second=90 amount=0
kerning first=81 second=44 amount=-1
kerning first=81 second=46 amount=-1
kerning first=81 second=65 amount=0
kerning first=81 second=84 amount=-1
kerning first=81 second=86 amount=0
kerning first=81 second=87 amount=0
kerning first=81 second=88 amount=0
kerning first=81 second=89 amount=0
kerning first=81 second=90 amount=0
kerning first=84 second=44 amount=-1
kerning first=84 second=45 amount=-1
kerning first=84 second=46 amount=-1
kerning first=84 second=63 amount=0
kerning first=84 second=65 amount=-2
kerning first=84 second=67 amount=0
kerning first=84 second=71 amount=0
kerning first=84 second=79 amount=0
kerning first=84 second=81 amount=0
kerning first=84 second=84 amount=0
kerning first=84 second=97 amount=-2
kerning first=84 second=99 amount=-2
kerning first=84 second=100 amount=-2
kerning first=84 second=101 amount=-2
kerning first=84 second=103 amount=-2
kerning first=84 second=109 amount=-1
kerning first=84 second=110 amount=-1
kerning first=84 second=111 amount=-2
kerning first=84 second=112 amount=-1
kerning first=84 second=113 amount=-2
kerning first=84 second=114 amount=-1
kerning first=84 second=115 amount=-1
kerning first=84 second=117 amount=-1
kerning first=84 second=118 amount=0
kerning first=84 second=119 amount=0
kerning first=84 second=120 amount=0
kerning first=84 second=121 amount=0
kerning first=84 second=122 amount=-1
kerning first=85 second=44 amount=0
kerning first=85 second=46 amount=0
kerning first=85 second=65 amount=0
kerning first=86 second=44 amount=-1
kerning first=86 second=46 amount=-1
kerning first=86 second=63 amount=0
kerning first=86 second=65 amount=-1
kerning first=86 second=67 amount=0
kerning first=86 second=71 amount=0
kerning first=86 second=79 amount=0
kerning first=86 second=81 amount=0
kerning first=86 second=97 amount=0
kerning first=86 second=99 amount=0
kerning first=86 second=100 amount=0
kerning first=86 second=101 amount=0
kerning first=86 second=103 amount=0
kerning first=86 second=109 amount=0
kerning first=86 second=110 amount=0
kerning first=86 second=111 amount=0
kerning first=86 second=112 amount=0
kerning first=86 second=113 amount=0
kerning first=86 second=114 amount=0
kerning first=86 second=115 amount=0
kerning first=86 second=117 amount=0
kerning first=87 second=44 amount=-1
kerning first=87 second=46 amount=-1
kerning first=87 second=63 amount=0
kerning first=87 second=65 amount=-1
kerning first=87 second=67 amount=0
kerning first=87 second=71 amount=0
kerning first=87 second=79 amount=0
kerning first=87 second=81 amount=0
kerning first=87 second=97 amount=0
kerning first=87 second=99 amount=0
kerning first=87 second=100 amount=0
kerning first=87 second=101 amount=0
kerning first=87 second=103 amount=0
kerning first=87 second=109 amount=0
kerning first=87 second=110 amount=0
kerning first=87 second=111 amount=0
kerning first=87 second=112 amount=0
kerning first=87 second=113 amount=0
kerning first=87 second=114 amount=0
kerning first=87 second=115 amount=0
kerning first=87 second=117 amount=0
kerning first=88 second=67 amount=0
kerning first=88 second=71 amount=0
kerning first=88 second=79 amount=0
kerning first=88 second=81 amount=0
kerning first=89 second=44 amount=-1
kerning first=89 second=46 amount=-1
kerning first=89 second=63 amount=0
kerning first=89 second=65 amount=-1
kerning first=89 second=67 amount=0
kerning first=89 second=71 amount=0
kerning first=89 second=79 amount=0
kerning first=89 second=81 amount=0
kerning first=89 second=97 amount=-1
kerning first=89 second=99 amount=-1
kerning first=89 second=100 amount=-1
kerning first=89 second=101 amount=-1
kerning first=89 second=103 amount=0
kerning first=89 second=109 amount=-1
kerning first=89 second=110 amount=-1
kerning first=89 second=111 amount=-1
kerning first=89 second=112 amount=-1
kerning first=89 second=113 amount=-1
kerning first=89 second=114 amount=-1
kerning first=89 second=115 amount=-1
kerning first=89 second=117 amount=-1
kerning first=89 second=122 amount=0
kerning first=90 second=67 amount=0
kerning first=90 second=71 amount=0
kerning first=90 second=79 amount=0
kerning first=90 second=81 amount=0
kerning first=91 second=74 amount=2
kerning first=97 second=34 amount=0
kerning first=97 second=39 amount=0
kerning first=98 second=34 amount=0
kerning first=98 second=39 amount=0
kerning first=98 second=118 amount=0
kerning first=98 second=119 amount=0
kerning first=98 second=120 amount=0
kerning first=98 second=121 amount=0
kerning first=98 second=122 amount=0
kerning first=99 second=34 amount=0
kerning first=99 second=39 amount=0
kerning first=101 second=34 amount=0
kerning first=101 second=39 amount=0
kerning first=101 second=118 amount=0
kerning first=101 second=119 amount=0
kerning first=101 second=120 amount=0
kerning first=101 second=121 amount=0
kerning first=101 second=122 amount=0
kerning first=102 second=34 amount=1
kerning first=102 second=39 amount=1
kerning first=104 second=34 amount=0
kerning first=104 second=39 amount=0
kerning first=107 second=99 amount=0
kerning first=107 second=100 amount=0
kerning first=107 second=101 amount=0
kerning first=107 second=111 amount=0
kerning first=107 second=113 amount=0
kerning first=109 second=34 amount=0
kerning first=109 second=39 amount=0
kerning first=110 second=34 amount=0
kerning first=110 second=39 amount=0
kerning first=111 second=34 amount=0
kerning first=111 second=39 amount=0
kerning first=111 second=118 amount=0
kerning first=111 second=119 amount=0
kerning first=111 second=120 amount=0
kerning first=111 second=121 amount=0
kerning first=111 second=122 amount=0
kerning first=112 second=34 amount=0
kerning first=112 second=39 amount=0
kerning first=112 second=118 amount=0
kerning first=112 second=119 amount=0
kerning first=112 second=120 amount=0
kerning first=112 second=121 amount=0
kerning first=112 second=122 amount=0
kerning first=114 second=34 amount=1
kerning first=114 second=39 amount=1
kerning first=114 second=97 amount=0
kerning first=114 second=99 amount=0
kerning first=114 second=100 amount=0
kerning first=114 second=101 amount=0
kerning first=114 second=103 amount=0
kerning first=114 second=111 amount=0
kerning first=114 second=113 amount=0
kerning first=116 second=34 amount=0
kerning first=116 second=39 amount=0
kerning first=118 second=34 amount=1
kerning first=118 second=39 amount=1
kerning first=118 second=44 amount=-1
kerning first=118 second=46 amount=-1
kerning first=118 second=63 amount=0
kerning first=119 second=34 amount=1
kerning first=119 second=39 amount=1
kerning first=119 second=44 amount=-1
kerning first=119 second=46 amount=-1
kerning first=119 second=63 amount=0
kerning first=120 second=99 amount=0
kerning first=120 second=100 amount=0
kerning first=120 second=101 amount=0
kerning first=120 second=111 amount=0
kerning first=120 second=113 amount=0
kerning first=121 second=34 amount=1
kerning first=121 second=39 amount=1
kerning first=121 second=44 amount=-1
kerning first=121 second=46 amount=-1
kerning first=121 second=63 amount=0
kerning first=123 second=74 amount=2